[gd_scene load_steps=5 format=2]

[ext_resource path="res://Bullet.gd" type="Script" id=1]

[sub_resource type="PhysicsMaterial" id=1]
bounce = 1.0

[sub_resource type="SphereShape" id=2]

[sub_resource type="SphereMesh" id=3]

[node name="Bullet" type="RigidBody"]
physics_material_override = SubResource( 1 )
can_sleep = false
script = ExtResource( 1 )

[node name="CollisionShape" type="CollisionShape" parent="."]
transform = Transform( 0.05, 0, 0, 0, 0.05, 0, 0, 0, 0.05, 0, 0, 0 )
shape = SubResource( 2 )

[node name="MeshInstance" type="MeshInstance" parent="CollisionShape"]
mesh = SubResource( 3 )
material/0 = null
